{
"type": "FeatureCollection",
"crs": { "type": "name", "properties": { "name": "urn:ogc:def:crs:OGC:1.3:CRS84" } },
                                                                                
"features": [
{ "type": "Feature", "properties": { "osm_id": "39569049", "access": null, "addr:housename": null, "addr:housenumber": null, "addr:interpolation": null, "admin_level": null, "aerialway": null, "aeroway": null, "amenity": "parking", "area": null, "barrier": null, "bicycle": null, "brand": null, "bridge": null, "boundary": null, "building": null, "construction": null, "covered": null, "culvert": null, "cutting": null, "denomination": null, "disused": null, "embankment": null, "foot": null, "generator:source": null, "harbour": null, "highway": null, "historic": null, "horse": null, "intermittent": null, "junction": null, "landuse": null, "layer": null, "leisure": null, "lock": null, "man_made": null, "military": null, "motorcar": null, "name": null, "natural": null, "office": null, "oneway": null, "operator": null, "place": null, "population": null, "power": null, "power_source": null, "public_transport": null, "railway": null, "ref": null, "religion": null, "route": null, "service": null, "shop": null, "sport": null, "surface": null, "toll": null, "tourism": null, "tower:type": null, "tracktype": null, "tunnel": null, "water": null, "waterway": null, "wetland": null, "width": null, "wood": null, "z_order": 0, "way_area": 3702.110000, "tags": "" }, "geometry": { "type": "Polygon", "coordinates": [ [ [ 1.92550844845359, 47.843218859543327 ], [ 1.925600346107156, 47.84334691847269 ], [ 1.926851699297934, 47.84293349921947 ], [ 1.926767167829699, 47.842800495329136 ], [ 1.92550844845359, 47.843218859543327 ] ] ] } },
{ "type": "Feature", "properties": { "osm_id": "39569048", "access": null, "addr:housename": null, "addr:housenumber": null, "addr:interpolation": null, "admin_level": null, "aerialway": null, "aeroway": null, "amenity": "parking", "area": null, "barrier": null, "bicycle": null, "brand": null, "bridge": null, "boundary": null, "building": null, "construction": null, "covered": null, "culvert": null, "cutting": null, "denomination": null, "disused": null, "embankment": null, "foot": null, "generator:source": null, "harbour": null, "highway": null, "historic": null, "horse": null, "intermittent": null, "junction": null, "landuse": null, "layer": null, "leisure": null, "lock": null, "man_made": null, "military": null, "motorcar": null, "name": null, "natural": null, "office": null, "oneway": null, "operator": null, "place": null, "population": null, "power": null, "power_source": null, "public_transport": null, "railway": null, "ref": null, "religion": null, "route": null, "service": null, "shop": null, "sport": null, "surface": null, "toll": null, "tourism": null, "tower:type": null, "tracktype": null, "tunnel": null, "water": null, "waterway": null, "wetland": null, "width": null, "wood": null, "z_order": 0, "way_area": 1117.840000, "tags": "" }, "geometry": { "type": "Polygon", "coordinates": [ [ [ 1.925169783591478, 47.843333413214438 ], [ 1.925366604470228, 47.843610812924766 ], [ 1.925555699837535, 47.843552270314355 ], [ 1.925335253266812, 47.843279271563517 ], [ 1.925169783591478, 47.843333413214438 ] ] ] } },
{ "type": "Feature", "properties": { "osm_id": "285270077", "access": null, "addr:housename": null, "addr:housenumber": null, "addr:interpolation": null, "admin_level": null, "aerialway": null, "aeroway": null, "amenity": "parking", "area": null, "barrier": null, "bicycle": null, "brand": null, "bridge": null, "boundary": null, "building": null, "construction": null, "covered": null, "culvert": null, "cutting": null, "denomination": null, "disused": null, "embankment": null, "foot": null, "generator:source": null, "harbour": null, "highway": null, "historic": null, "horse": null, "intermittent": null, "junction": null, "landuse": null, "layer": null, "leisure": null, "lock": null, "man_made": null, "military": null, "motorcar": null, "name": null, "natural": null, "office": null, "oneway": null, "operator": null, "place": null, "population": null, "power": null, "power_source": null, "public_transport": null, "railway": null, "ref": null, "religion": null, "route": null, "service": null, "shop": null, "sport": null, "surface": null, "toll": null, "tourism": null, "tower:type": null, "tracktype": null, "tunnel": null, "water": null, "waterway": null, "wetland": null, "width": null, "wood": null, "z_order": 0, "way_area": 9497.340000, "tags": "" }, "geometry": { "type": "Polygon", "coordinates": [ [ [ 1.926851699297934, 47.84293349921947 ], [ 1.927264026013345, 47.843527068634735 ], [ 1.927776514882935, 47.843601286943219 ], [ 1.928121198457452, 47.844146917876415 ], [ 1.928330416087124, 47.844094284335952 ], [ 1.928112305136139, 47.843725787766502 ], [ 1.927904704473979, 47.843500480246554 ], [ 1.927727916026065, 47.843269202898369 ], [ 1.927672489973034, 47.843197878106679 ], [ 1.927528220538405, 47.843247317110503 ], [ 1.927202760910968, 47.842816713863492 ], [ 1.926851699297934, 47.84293349921947 ] ] ] } },
{ "type": "Feature", "properties": { "osm_id": "39569050", "access": null, "addr:housename": null, "addr:housenumber": null, "addr:interpolation": null, "admin_level": null, "aerialway": null, "aeroway": null, "amenity": "parking", "area": null, "barrier": null, "bicycle": null, "brand": null, "bridge": null, "boundary": null, "building": null, "construction": null, "covered": null, "culvert": null, "cutting": null, "denomination": null, "disused": null, "embankment": null, "foot": null, "generator:source": null, "harbour": null, "highway": null, "historic": null, "horse": null, "intermittent": null, "junction": null, "landuse": null, "layer": null, "leisure": null, "lock": null, "man_made": null, "military": null, "motorcar": null, "name": null, "natural": null, "office": null, "oneway": null, "operator": null, "place": null, "population": null, "power": null, "power_source": null, "public_transport": null, "railway": null, "ref": null, "religion": null, "route": null, "service": null, "shop": null, "sport": null, "surface": null, "toll": null, "tourism": null, "tower:type": null, "tracktype": null, "tunnel": null, "water": null, "waterway": null, "wetland": null, "width": null, "wood": null, "z_order": 0, "way_area": 2456.310000, "tags": "" }, "geometry": { "type": "Polygon", "coordinates": [ [ [ 1.925582828959116, 47.844730766763803 ], [ 1.925777853207298, 47.844953114756748 ], [ 1.926228987142983, 47.844810469705997 ], [ 1.926058756396642, 47.84457600283411 ], [ 1.925582828959116, 47.844730766763803 ] ] ] } },
{ "type": "Feature", "properties": { "osm_id": "376245347", "access": null, "addr:housename": null, "addr:housenumber": null, "addr:interpolation": null, "admin_level": null, "aerialway": null, "aeroway": null, "amenity": "parking", "area": null, "barrier": null, "bicycle": null, "brand": null, "bridge": null, "boundary": null, "building": null, "construction": null, "covered": null, "culvert": null, "cutting": null, "denomination": null, "disused": null, "embankment": null, "foot": null, "generator:source": null, "harbour": null, "highway": null, "historic": null, "horse": null, "intermittent": null, "junction": null, "landuse": null, "layer": null, "leisure": null, "lock": null, "man_made": null, "military": null, "motorcar": null, "name": null, "natural": null, "office": null, "oneway": null, "operator": null, "place": null, "population": null, "power": null, "power_source": null, "public_transport": null, "railway": null, "ref": null, "religion": null, "route": null, "service": null, "shop": null, "sport": null, "surface": null, "toll": null, "tourism": null, "tower:type": null, "tracktype": null, "tunnel": null, "water": null, "waterway": null, "wetland": null, "width": null, "wood": null, "z_order": 0, "way_area": 4819.040000, "tags": "" }, "geometry": { "type": "Polygon", "coordinates": [ [ [ 1.928617248157343, 47.844174289707951 ], [ 1.929467323910705, 47.84530568630143 ], [ 1.92964519033696, 47.845251064396152 ], [ 1.928788377218968, 47.84408668773807 ], [ 1.928695760913175, 47.84413407602095 ], [ 1.928617248157343, 47.844174289707951 ] ] ] } },
{ "type": "Feature", "properties": { "osm_id": "376245348", "access": null, "addr:housename": null, "addr:housenumber": null, "addr:interpolation": null, "admin_level": null, "aerialway": null, "aeroway": null, "amenity": "parking", "area": null, "barrier": null, "bicycle": null, "brand": null, "bridge": null, "boundary": null, "building": null, "construction": null, "covered": null, "culvert": null, "cutting": null, "denomination": null, "disused": null, "embankment": null, "foot": null, "generator:source": null, "harbour": null, "highway": null, "historic": null, "horse": null, "intermittent": null, "junction": null, "landuse": null, "layer": null, "leisure": null, "lock": null, "man_made": null, "military": null, "motorcar": null, "name": null, "natural": null, "office": null, "oneway": null, "operator": null, "place": null, "population": null, "power": null, "power_source": null, "public_transport": null, "railway": null, "ref": null, "religion": null, "route": null, "service": null, "shop": null, "sport": null, "surface": null, "toll": null, "tourism": null, "tower:type": null, "tracktype": null, "tunnel": null, "water": null, "waterway": null, "wetland": null, "width": null, "wood": null, "z_order": 0, "way_area": 4391.320000, "tags": "" }, "geometry": { "type": "Polygon", "coordinates": [ [ [ 1.929414592803527, 47.843849263348403 ], [ 1.930291528183885, 47.845036193561583 ], [ 1.930460860614941, 47.844979883268628 ], [ 1.929563982635276, 47.843795363399089 ], [ 1.929414592803527, 47.843849263348403 ] ] ] } },
{ "type": "Feature", "properties": { "osm_id": "39569055", "access": null, "addr:housename": null, "addr:housenumber": null, "addr:interpolation": null, "admin_level": null, "aerialway": null, "aeroway": null, "amenity": "parking", "area": null, "barrier": null, "bicycle": null, "brand": null, "bridge": null, "boundary": null, "building": null, "construction": null, "covered": null, "culvert": null, "cutting": null, "denomination": null, "disused": null, "embankment": null, "foot": null, "generator:source": null, "harbour": null, "highway": null, "historic": null, "horse": null, "intermittent": null, "junction": null, "landuse": null, "layer": null, "leisure": null, "lock": null, "man_made": null, "military": null, "motorcar": null, "name": null, "natural": null, "office": null, "oneway": null, "operator": null, "place": null, "population": null, "power": null, "power_source": null, "public_transport": null, "railway": null, "ref": null, "religion": null, "route": null, "service": null, "shop": null, "sport": null, "surface": null, "toll": null, "tourism": null, "tower:type": null, "tracktype": null, "tunnel": null, "water": null, "waterway": null, "wetland": null, "width": null, "wood": null, "z_order": 0, "way_area": 34758.000000, "tags": "" }, "geometry": { "type": "Polygon", "coordinates": [ [ [ 1.930194779627785, 47.843809712608071 ], [ 1.930955293347321, 47.844839710164692 ], [ 1.932420804901833, 47.844349372623569 ], [ 1.932014047741184, 47.843798377939123 ], [ 1.931660381013826, 47.843319305039131 ], [ 1.930194779627785, 47.843809712608071 ] ] ] } },
{ "type": "Feature", "properties": { "osm_id": "41688105", "access": null, "addr:housename": null, "addr:housenumber": null, "addr:interpolation": null, "admin_level": null, "aerialway": null, "aeroway": null, "amenity": "parking", "area": null, "barrier": null, "bicycle": null, "brand": null, "bridge": null, "boundary": null, "building": null, "construction": null, "covered": null, "culvert": null, "cutting": null, "denomination": null, "disused": null, "embankment": null, "foot": null, "generator:source": null, "harbour": null, "highway": null, "historic": null, "horse": null, "intermittent": null, "junction": null, "landuse": null, "layer": null, "leisure": null, "lock": null, "man_made": null, "military": null, "motorcar": null, "name": null, "natural": null, "office": null, "oneway": null, "operator": null, "place": null, "population": null, "power": null, "power_source": null, "public_transport": null, "railway": null, "ref": null, "religion": null, "route": null, "service": null, "shop": null, "sport": null, "surface": null, "toll": null, "tourism": null, "tower:type": null, "tracktype": null, "tunnel": null, "water": null, "waterway": null, "wetland": null, "width": null, "wood": null, "z_order": 0, "way_area": 7092.830000, "tags": "" }, "geometry": { "type": "Polygon", "coordinates": [ [ [ 1.929543321383742, 47.846612012920254 ], [ 1.929983406041432, 47.84719746180599 ], [ 1.930506315368318, 47.847023895679982 ], [ 1.930059223851411, 47.846432114623056 ], [ 1.929543321383742, 47.846612012920254 ] ] ] } },
{ "type": "Feature", "properties": { "osm_id": "376245344", "access": null, "addr:housename": null, "addr:housenumber": null, "addr:interpolation": null, "admin_level": null, "aerialway": null, "aeroway": null, "amenity": "parking", "area": null, "barrier": null, "bicycle": null, "brand": null, "bridge": null, "boundary": null, "building": null, "construction": null, "covered": null, "culvert": null, "cutting": null, "denomination": null, "disused": null, "embankment": null, "foot": null, "generator:source": null, "harbour": null, "highway": null, "historic": null, "horse": null, "intermittent": null, "junction": null, "landuse": null, "layer": null, "leisure": null, "lock": null, "man_made": null, "military": null, "motorcar": null, "name": null, "natural": null, "office": null, "oneway": null, "operator": null, "place": null, "population": null, "power": null, "power_source": null, "public_transport": null, "railway": null, "ref": null, "religion": null, "route": null, "service": null, "shop": null, "sport": null, "surface": null, "toll": null, "tourism": null, "tower:type": null, "tracktype": null, "tunnel": null, "water": null, "waterway": null, "wetland": null, "width": null, "wood": null, "z_order": 0, "way_area": 3450.760000, "tags": "" }, "geometry": { "type": "Polygon", "coordinates": [ [ [ 1.929865097918513, 47.845530202226279 ], [ 1.93097290032689, 47.84703167270883 ], [ 1.931079530351115, 47.846997911955 ], [ 1.929958702371118, 47.845498188871062 ], [ 1.92990830688368, 47.845515371182813 ], [ 1.929865097918513, 47.845530202226279 ] ] ] } },
{ "type": "Feature", "properties": { "osm_id": "376245345", "access": null, "addr:housename": null, "addr:housenumber": null, "addr:interpolation": null, "admin_level": null, "aerialway": null, "aeroway": null, "amenity": "parking", "area": null, "barrier": null, "bicycle": null, "brand": null, "bridge": null, "boundary": null, "building": null, "construction": null, "covered": null, "culvert": null, "cutting": null, "denomination": null, "disused": null, "embankment": null, "foot": null, "generator:source": null, "harbour": null, "highway": null, "historic": null, "horse": null, "intermittent": null, "junction": null, "landuse": null, "layer": null, "leisure": null, "lock": null, "man_made": null, "military": null, "motorcar": null, "name": null, "natural": null, "office": null, "oneway": null, "operator": null, "place": null, "population": null, "power": null, "power_source": null, "public_transport": null, "railway": null, "ref": null, "religion": null, "route": null, "service": null, "shop": null, "sport": null, "surface": null, "toll": null, "tourism": null, "tower:type": null, "tracktype": null, "tunnel": null, "water": null, "waterway": null, "wetland": null, "width": null, "wood": null, "z_order": 0, "way_area": 5088.650000, "tags": "" }, "geometry": { "type": "Polygon", "coordinates": [ [ [ 1.930383785163564, 47.84535247058075 ], [ 1.93152437607981, 47.846849062940862 ], [ 1.931661458992167, 47.84680119483987 ], [ 1.930539373370773, 47.845300802888396 ], [ 1.930472448882107, 47.845322989255003 ], [ 1.930383785163564, 47.84535247058075 ] ] ] } },
{ "type": "Feature", "properties": { "osm_id": "376245339", "access": null, "addr:housename": null, "addr:housenumber": null, "addr:interpolation": null, "admin_level": null, "aerialway": null, "aeroway": null, "amenity": "parking", "area": null, "barrier": null, "bicycle": null, "brand": null, "bridge": null, "boundary": null, "building": null, "construction": null, "covered": null, "culvert": null, "cutting": null, "denomination": null, "disused": null, "embankment": null, "foot": null, "generator:source": null, "harbour": null, "highway": null, "historic": null, "horse": null, "intermittent": null, "junction": null, "landuse": null, "layer": null, "leisure": null, "lock": null, "man_made": null, "military": null, "motorcar": null, "name": null, "natural": null, "office": null, "oneway": null, "operator": null, "place": null, "population": null, "power": null, "power_source": null, "public_transport": null, "railway": null, "ref": null, "religion": null, "route": null, "service": null, "shop": null, "sport": null, "surface": null, "toll": null, "tourism": null, "tower:type": null, "tracktype": null, "tunnel": null, "water": null, "waterway": null, "wetland": null, "width": null, "wood": null, "z_order": 0, "way_area": 4433.350000, "tags": "" }, "geometry": { "type": "Polygon", "coordinates": [ [ [ 1.932696048704887, 47.846987180853652 ], [ 1.93279603119601, 47.846955771268945 ], [ 1.933140355444413, 47.846838572957779 ], [ 1.933327474518095, 47.846721374381765 ], [ 1.933422875601269, 47.846601884614479 ], [ 1.933466174397963, 47.84642771361802 ], [ 1.93344713011394, 47.846352293596972 ], [ 1.932856128488518, 47.846550579892273 ], [ 1.932696048704887, 47.846987180853652 ] ] ] } },
{ "type": "Feature", "properties": { "osm_id": "41265561", "access": null, "addr:housename": null, "addr:housenumber": null, "addr:interpolation": null, "admin_level": null, "aerialway": null, "aeroway": null, "amenity": "parking", "area": null, "barrier": null, "bicycle": null, "brand": null, "bridge": null, "boundary": null, "building": null, "construction": null, "covered": null, "culvert": null, "cutting": null, "denomination": null, "disused": null, "embankment": null, "foot": null, "generator:source": null, "harbour": null, "highway": null, "historic": null, "horse": null, "intermittent": null, "junction": null, "landuse": null, "layer": null, "leisure": null, "lock": null, "man_made": null, "military": null, "motorcar": null, "name": null, "natural": null, "office": null, "oneway": null, "operator": null, "place": null, "population": null, "power": null, "power_source": null, "public_transport": null, "railway": null, "ref": null, "religion": null, "route": null, "service": null, "shop": null, "sport": null, "surface": null, "toll": null, "tourism": null, "tower:type": null, "tracktype": null, "tunnel": null, "water": null, "waterway": null, "wetland": null, "width": null, "wood": null, "z_order": 0, "way_area": 2285.630000, "tags": "" }, "geometry": { "type": "Polygon", "coordinates": [ [ [ 1.929431301467812, 47.84924391877653 ], [ 1.92948232577595, 47.849428388924672 ], [ 1.929702502852088, 47.849839586197398 ], [ 1.929921152792242, 47.84976139807975 ], [ 1.92965426332133, 47.849407892273945 ], [ 1.929605754295988, 47.849186467645424 ], [ 1.929431301467812, 47.84924391877653 ] ] ] } },
{ "type": "Feature", "properties": { "osm_id": "289526531", "access": null, "addr:housename": null, "addr:housenumber": null, "addr:interpolation": null, "admin_level": null, "aerialway": null, "aeroway": null, "amenity": "parking", "area": null, "barrier": null, "bicycle": null, "brand": null, "bridge": null, "boundary": null, "building": null, "construction": null, "covered": null, "culvert": null, "cutting": null, "denomination": null, "disused": null, "embankment": null, "foot": null, "generator:source": null, "harbour": null, "highway": null, "historic": null, "horse": null, "intermittent": null, "junction": null, "landuse": null, "layer": null, "leisure": null, "lock": null, "man_made": null, "military": null, "motorcar": null, "name": null, "natural": null, "office": null, "oneway": null, "operator": null, "place": null, "population": null, "power": null, "power_source": null, "public_transport": null, "railway": null, "ref": null, "religion": null, "route": null, "service": null, "shop": null, "sport": null, "surface": null, "toll": null, "tourism": null, "tower:type": null, "tracktype": null, "tunnel": null, "water": null, "waterway": null, "wetland": null, "width": null, "wood": null, "z_order": 0, "way_area": 7369.210000, "tags": "" }, "geometry": { "type": "Polygon", "coordinates": [ [ [ 1.929762779807652, 47.850087713629769 ], [ 1.929855485944973, 47.850229982467567 ], [ 1.932245723252958, 47.849411690183359 ], [ 1.931843727163315, 47.849367200369819 ], [ 1.929762779807652, 47.850087713629769 ] ] ] } },
{ "type": "Feature", "properties": { "osm_id": "285272363", "access": null, "addr:housename": null, "addr:housenumber": null, "addr:interpolation": null, "admin_level": null, "aerialway": null, "aeroway": null, "amenity": "parking", "area": null, "barrier": null, "bicycle": null, "brand": null, "bridge": null, "boundary": null, "building": null, "construction": null, "covered": null, "culvert": null, "cutting": null, "denomination": null, "disused": null, "embankment": null, "foot": null, "generator:source": null, "harbour": null, "highway": null, "historic": null, "horse": null, "intermittent": null, "junction": null, "landuse": null, "layer": null, "leisure": null, "lock": null, "man_made": null, "military": null, "motorcar": null, "name": null, "natural": null, "office": null, "oneway": null, "operator": null, "place": null, "population": null, "power": null, "power_source": null, "public_transport": null, "railway": null, "ref": null, "religion": null, "route": null, "service": null, "shop": null, "sport": null, "surface": null, "toll": null, "tourism": null, "tower:type": null, "tracktype": null, "tunnel": null, "water": null, "waterway": null, "wetland": null, "width": null, "wood": null, "z_order": 0, "way_area": 5955.440000, "tags": "" }, "geometry": { "type": "Polygon", "coordinates": [ [ [ 1.936266402801621, 47.839003289388494 ], [ 1.936543982224413, 47.839404801375224 ], [ 1.937202267664616, 47.83920317147625 ], [ 1.936921993295971, 47.838796170937648 ], [ 1.936266402801621, 47.839003289388494 ] ] ] } },
{ "type": "Feature", "properties": { "osm_id": "183069521", "access": null, "addr:housename": null, "addr:housenumber": null, "addr:interpolation": null, "admin_level": null, "aerialway": null, "aeroway": null, "amenity": "parking", "area": null, "barrier": null, "bicycle": null, "brand": null, "bridge": null, "boundary": null, "building": null, "construction": null, "covered": null, "culvert": null, "cutting": null, "denomination": null, "disused": null, "embankment": null, "foot": null, "generator:source": null, "harbour": null, "highway": null, "historic": null, "horse": null, "intermittent": null, "junction": null, "landuse": null, "layer": null, "leisure": null, "lock": null, "man_made": null, "military": null, "motorcar": null, "name": null, "natural": null, "office": null, "oneway": null, "operator": null, "place": null, "population": null, "power": null, "power_source": null, "public_transport": null, "railway": null, "ref": null, "religion": null, "route": null, "service": null, "shop": null, "sport": null, "surface": null, "toll": null, "tourism": null, "tower:type": null, "tracktype": null, "tunnel": null, "water": null, "waterway": null, "wetland": null, "width": null, "wood": null, "z_order": 0, "way_area": 4473.600000, "tags": "\"parking\"=>\"surface\"" }, "geometry": { "type": "Polygon", "coordinates": [ [ [ 1.941752863399381, 47.839132564648764 ], [ 1.942072124651357, 47.839555661510822 ], [ 1.942578954134657, 47.83957368993093 ], [ 1.942143989874086, 47.839007389541621 ], [ 1.941752863399381, 47.839132564648764 ] ] ] } },
{ "type": "Feature", "properties": { "osm_id": "285272357", "access": null, "addr:housename": null, "addr:housenumber": null, "addr:interpolation": null, "admin_level": null, "aerialway": null, "aeroway": null, "amenity": "parking", "area": null, "barrier": null, "bicycle": null, "brand": null, "bridge": null, "boundary": null, "building": null, "construction": null, "covered": null, "culvert": null, "cutting": null, "denomination": null, "disused": null, "embankment": null, "foot": null, "generator:source": null, "harbour": null, "highway": null, "historic": null, "horse": null, "intermittent": null, "junction": null, "landuse": null, "layer": null, "leisure": null, "lock": null, "man_made": null, "military": null, "motorcar": null, "name": null, "natural": null, "office": null, "oneway": null, "operator": null, "place": null, "population": null, "power": null, "power_source": null, "public_transport": null, "railway": null, "ref": null, "religion": null, "route": null, "service": null, "shop": null, "sport": null, "surface": null, "toll": null, "tourism": null, "tower:type": null, "tracktype": null, "tunnel": null, "water": null, "waterway": null, "wetland": null, "width": null, "wood": null, "z_order": 0, "way_area": 2935.980000, "tags": "" }, "geometry": { "type": "Polygon", "coordinates": [ [ [ 1.933362868140289, 47.84000980696085 ], [ 1.933610354001064, 47.840205464522739 ], [ 1.934043252136481, 47.840054184210615 ], [ 1.933822356408117, 47.839790271665464 ], [ 1.93341146699716, 47.839929674575359 ], [ 1.933362868140289, 47.84000980696085 ] ] ] } },
{ "type": "Feature", "properties": { "osm_id": "211692007", "access": null, "addr:housename": null, "addr:housenumber": null, "addr:interpolation": null, "admin_level": null, "aerialway": null, "aeroway": null, "amenity": "parking", "area": null, "barrier": null, "bicycle": null, "brand": null, "bridge": null, "boundary": null, "building": null, "construction": null, "covered": null, "culvert": null, "cutting": null, "denomination": null, "disused": null, "embankment": null, "foot": null, "generator:source": null, "harbour": null, "highway": null, "historic": null, "horse": null, "intermittent": null, "junction": null, "landuse": null, "layer": null, "leisure": null, "lock": null, "man_made": null, "military": null, "motorcar": null, "name": null, "natural": null, "office": null, "oneway": null, "operator": null, "place": null, "population": null, "power": null, "power_source": null, "public_transport": null, "railway": null, "ref": null, "religion": null, "route": null, "service": null, "shop": null, "sport": null, "surface": null, "toll": null, "tourism": null, "tower:type": null, "tracktype": null, "tunnel": null, "water": null, "waterway": null, "wetland": null, "width": null, "wood": null, "z_order": 0, "way_area": 519.926000, "tags": "\"parking\"=>\"surface\"" }, "geometry": { "type": "Polygon", "coordinates": [ [ [ 1.93570809985254, 47.841318075760334 ], [ 1.935921000574876, 47.841619482999114 ], [ 1.935997267542499, 47.841595184780907 ], [ 1.935784366820162, 47.841293777400949 ], [ 1.93570809985254, 47.841318075760334 ] ] ] } },
{ "type": "Feature", "properties": { "osm_id": "95534379", "access": null, "addr:housename": null, "addr:housenumber": null, "addr:interpolation": null, "admin_level": null, "aerialway": null, "aeroway": null, "amenity": "parking", "area": null, "barrier": null, "bicycle": null, "brand": null, "bridge": null, "boundary": null, "building": null, "construction": null, "covered": null, "culvert": null, "cutting": null, "denomination": null, "disused": null, "embankment": null, "foot": null, "generator:source": null, "harbour": null, "highway": null, "historic": null, "horse": null, "intermittent": null, "junction": null, "landuse": null, "layer": null, "leisure": null, "lock": null, "man_made": null, "military": null, "motorcar": null, "name": null, "natural": null, "office": null, "oneway": null, "operator": null, "place": null, "population": null, "power": null, "power_source": null, "public_transport": null, "railway": null, "ref": null, "religion": null, "route": null, "service": null, "shop": null, "sport": null, "surface": null, "toll": null, "tourism": null, "tower:type": null, "tracktype": null, "tunnel": null, "water": null, "waterway": null, "wetland": null, "width": null, "wood": null, "z_order": 0, "way_area": 1971.880000, "tags": "\"parking\"=>\"surface\"" }, "geometry": { "type": "Polygon", "coordinates": [ [ [ 1.935513973919642, 47.841679716002126 ], [ 1.935711154124506, 47.842015307209039 ], [ 1.935953519588162, 47.841944583622841 ], [ 1.935983074161009, 47.841932766202618 ], [ 1.935994752259703, 47.841918778232333 ], [ 1.93599888451001, 47.84190171531521 ], [ 1.935997267542499, 47.84188567737386 ], [ 1.935735678131763, 47.84161037870529 ], [ 1.935513973919642, 47.841679716002126 ] ] ] } },
{ "type": "Feature", "properties": { "osm_id": "95537231", "access": null, "addr:housename": null, "addr:housenumber": null, "addr:interpolation": null, "admin_level": null, "aerialway": null, "aeroway": null, "amenity": "parking", "area": null, "barrier": null, "bicycle": null, "brand": null, "bridge": null, "boundary": null, "building": null, "construction": null, "covered": null, "culvert": null, "cutting": null, "denomination": null, "disused": null, "embankment": null, "foot": null, "generator:source": null, "harbour": null, "highway": null, "historic": null, "horse": null, "intermittent": null, "junction": null, "landuse": null, "layer": null, "leisure": null, "lock": null, "man_made": null, "military": null, "motorcar": null, "name": null, "natural": null, "office": null, "oneway": null, "operator": null, "place": null, "population": null, "power": null, "power_source": null, "public_transport": null, "railway": null, "ref": null, "religion": null, "route": null, "service": null, "shop": null, "sport": null, "surface": null, "toll": null, "tourism": null, "tower:type": null, "tracktype": null, "tunnel": null, "water": null, "waterway": null, "wetland": null, "width": null, "wood": null, "z_order": 0, "way_area": 22151.600000, "tags": "\"parking\"=>\"surface\"" }, "geometry": { "type": "Polygon", "coordinates": [ [ [ 1.935979121573759, 47.8397083903699 ], [ 1.936822459962491, 47.840870815302125 ], [ 1.936930347628113, 47.841031499100097 ], [ 1.937036348831639, 47.841058812281553 ], [ 1.937180797929326, 47.841091009258449 ], [ 1.937212418627327, 47.84110349010367 ], [ 1.9376138757278, 47.841620688865724 ], [ 1.937820398411619, 47.841562566063132 ], [ 1.9388210318066, 47.841252898249564 ], [ 1.938655382468208, 47.841019380001732 ], [ 1.937713768387394, 47.841323502191386 ], [ 1.936461696544388, 47.839660214201146 ], [ 1.936397287338517, 47.839572182538184 ], [ 1.935979121573759, 47.8397083903699 ] ] ] } },
{ "type": "Feature", "properties": { "osm_id": "95534381", "access": null, "addr:housename": null, "addr:housenumber": null, "addr:interpolation": null, "admin_level": null, "aerialway": null, "aeroway": null, "amenity": "parking", "area": null, "barrier": null, "bicycle": null, "brand": null, "bridge": null, "boundary": null, "building": null, "construction": null, "covered": null, "culvert": null, "cutting": null, "denomination": null, "disused": null, "embankment": null, "foot": null, "generator:source": null, "harbour": null, "highway": null, "historic": null, "horse": null, "intermittent": null, "junction": null, "landuse": null, "layer": null, "leisure": null, "lock": null, "man_made": null, "military": null, "motorcar": null, "name": null, "natural": null, "office": null, "oneway": null, "operator": null, "place": null, "population": null, "power": null, "power_source": null, "public_transport": null, "railway": null, "ref": null, "religion": null, "route": null, "service": null, "shop": null, "sport": null, "surface": null, "toll": null, "tourism": null, "tower:type": null, "tracktype": null, "tunnel": null, "water": null, "waterway": null, "wetland": null, "width": null, "wood": null, "z_order": 0, "way_area": 3529.590000, "tags": "\"parking\"=>\"surface\"" }, "geometry": { "type": "Polygon", "coordinates": [ [ [ 1.936394682224193, 47.841089863673474 ], [ 1.936527812549299, 47.841282080419923 ], [ 1.936605067663734, 47.841307464071278 ], [ 1.937005356954338, 47.841395613376939 ], [ 1.937098512249301, 47.841399773634578 ], [ 1.937208376208548, 47.841364562168025 ], [ 1.937184391190462, 47.841328084510508 ], [ 1.937176935173604, 47.841285095106002 ], [ 1.937125282044767, 47.841150760524044 ], [ 1.937079827291391, 47.841131406186214 ], [ 1.936933851057721, 47.841095169540523 ], [ 1.936760116881773, 47.841053687292742 ], [ 1.936676034571179, 47.841040000555466 ], [ 1.936600576087313, 47.841033307920505 ], [ 1.936538233006595, 47.841040663789514 ], [ 1.936394682224193, 47.841089863673474 ] ] ] } },
{ "type": "Feature", "properties": { "osm_id": "95539431", "access": null, "addr:housename": null, "addr:housenumber": null, "addr:interpolation": null, "admin_level": null, "aerialway": null, "aeroway": null, "amenity": "parking", "area": null, "barrier": null, "bicycle": null, "brand": null, "bridge": null, "boundary": null, "building": null, "construction": null, "covered": null, "culvert": null, "cutting": null, "denomination": null, "disused": null, "embankment": null, "foot": null, "generator:source": null, "harbour": null, "highway": null, "historic": null, "horse": null, "intermittent": null, "junction": null, "landuse": null, "layer": null, "leisure": null, "lock": null, "man_made": null, "military": null, "motorcar": null, "name": null, "natural": null, "office": null, "oneway": null, "operator": null, "place": null, "population": null, "power": null, "power_source": null, "public_transport": null, "railway": null, "ref": null, "religion": null, "route": null, "service": null, "shop": null, "sport": null, "surface": null, "toll": null, "tourism": null, "tower:type": null, "tracktype": null, "tunnel": null, "water": null, "waterway": null, "wetland": null, "width": null, "wood": null, "z_order": 0, "way_area": 4975.280000, "tags": "\"parking\"=>\"surface\"" }, "geometry": { "type": "Polygon", "coordinates": [ [ [ 1.938258057618042, 47.842503797752045 ], [ 1.938376275909432, 47.842657362021782 ], [ 1.93841373565678, 47.842714518924829 ], [ 1.938485960205623, 47.842795008760604 ], [ 1.938544171036034, 47.842845292235097 ], [ 1.938624660085491, 47.842892862527599 ], [ 1.938746830964131, 47.842930906671825 ], [ 1.938885710507056, 47.842946160496787 ], [ 1.93917173409352, 47.842966961159945 ], [ 1.938931165260433, 47.842661160425521 ], [ 1.938834057378219, 47.842426261791779 ], [ 1.938621965139639, 47.842488182043077 ], [ 1.938574534092637, 47.842414987112946 ], [ 1.938258057618042, 47.842503797752045 ] ] ] } },
{ "type": "Feature", "properties": { "osm_id": "95541913", "access": null, "addr:housename": null, "addr:housenumber": null, "addr:interpolation": null, "admin_level": null, "aerialway": null, "aeroway": null, "amenity": "parking", "area": null, "barrier": null, "bicycle": null, "brand": null, "bridge": null, "boundary": null, "building": null, "construction": null, "covered": null, "culvert": null, "cutting": null, "denomination": null, "disused": null, "embankment": null, "foot": null, "generator:source": null, "harbour": null, "highway": null, "historic": null, "horse": null, "intermittent": null, "junction": null, "landuse": null, "layer": null, "leisure": null, "lock": null, "man_made": null, "military": null, "motorcar": null, "name": null, "natural": null, "office": null, "oneway": null, "operator": null, "place": null, "population": null, "power": null, "power_source": null, "public_transport": null, "railway": null, "ref": null, "religion": null, "route": null, "service": null, "shop": null, "sport": null, "surface": null, "toll": null, "tourism": null, "tower:type": null, "tracktype": null, "tunnel": null, "water": null, "waterway": null, "wetland": null, "width": null, "wood": null, "z_order": 0, "way_area": 7575.290000, "tags": "\"parking\"=>\"surface\"" }, "geometry": { "type": "Polygon", "coordinates": [ [ [ 1.936027450936045, 47.843338718852038 ], [ 1.936149082825515, 47.843726089220922 ], [ 1.93625059245262, 47.843739473795189 ], [ 1.936334225605572, 47.843724702530594 ], [ 1.936464571153297, 47.843682318021479 ], [ 1.936583058939273, 47.843661577936125 ], [ 1.936777454366756, 47.843655609130948 ], [ 1.936920555991516, 47.843672490598344 ], [ 1.937118095522494, 47.843630708956518 ], [ 1.936700468746907, 47.843123779804181 ], [ 1.936662829336502, 47.843135777827797 ], [ 1.936027450936045, 47.843338718852038 ] ] ] } },
{ "type": "Feature", "properties": { "osm_id": "95541910", "access": null, "addr:housename": null, "addr:housenumber": null, "addr:interpolation": null, "admin_level": null, "aerialway": null, "aeroway": null, "amenity": "parking", "area": null, "barrier": null, "bicycle": null, "brand": null, "bridge": null, "boundary": null, "building": null, "construction": null, "covered": null, "culvert": null, "cutting": null, "denomination": null, "disused": null, "embankment": null, "foot": null, "generator:source": null, "harbour": null, "highway": null, "historic": null, "horse": null, "intermittent": null, "junction": null, "landuse": null, "layer": null, "leisure": null, "lock": null, "man_made": null, "military": null, "motorcar": null, "name": null, "natural": null, "office": null, "oneway": null, "operator": null, "place": null, "population": null, "power": null, "power_source": null, "public_transport": null, "railway": null, "ref": null, "religion": null, "route": null, "service": null, "shop": null, "sport": null, "surface": null, "toll": null, "tourism": null, "tower:type": null, "tracktype": null, "tunnel": null, "water": null, "waterway": null, "wetland": null, "width": null, "wood": null, "z_order": 0, "way_area": 1734.710000, "tags": "\"parking\"=>\"surface\"" }, "geometry": { "type": "Polygon", "coordinates": [ [ [ 1.937187984451599, 47.843611174670862 ], [ 1.937277905811539, 47.843724702530594 ], [ 1.937911577412957, 47.843517482346691 ], [ 1.937825878134852, 47.843394066266306 ], [ 1.937187984451599, 47.843611174670862 ] ] ] } },
{ "type": "Feature", "properties": { "osm_id": "95541912", "access": null, "addr:housename": null, "addr:housenumber": null, "addr:interpolation": null, "admin_level": null, "aerialway": null, "aeroway": null, "amenity": "parking", "area": null, "barrier": null, "bicycle": null, "brand": null, "bridge": null, "boundary": null, "building": null, "construction": null, "covered": null, "culvert": null, "cutting": null, "denomination": null, "disused": null, "embankment": null, "foot": null, "generator:source": null, "harbour": null, "highway": null, "historic": null, "horse": null, "intermittent": null, "junction": null, "landuse": null, "layer": null, "leisure": null, "lock": null, "man_made": null, "military": null, "motorcar": null, "name": null, "natural": null, "office": null, "oneway": null, "operator": null, "place": null, "population": null, "power": null, "power_source": null, "public_transport": null, "railway": null, "ref": null, "religion": null, "route": null, "service": null, "shop": null, "sport": null, "surface": null, "toll": null, "tourism": null, "tower:type": null, "tracktype": null, "tunnel": null, "water": null, "waterway": null, "wetland": null, "width": null, "wood": null, "z_order": 0, "way_area": 3335.420000, "tags": "\"parking\"=>\"surface\"" }, "geometry": { "type": "Polygon", "coordinates": [ [ [ 1.937800904969954, 47.842803087883304 ], [ 1.938047223020859, 47.843105873200962 ], [ 1.938089174344628, 47.843093573712338 ], [ 1.938156727653993, 47.843185578639876 ], [ 1.938436822359582, 47.843101713080138 ], [ 1.938145498712942, 47.84269251231877 ], [ 1.9380324906502, 47.842669782198058 ], [ 1.937965566161532, 47.842691969690009 ], [ 1.937936999735498, 47.842656095887151 ], [ 1.937846719049444, 47.842686905154643 ], [ 1.937800904969954, 47.842803087883304 ] ] ] } },
{ "type": "Feature", "properties": { "osm_id": "171342628", "access": null, "addr:housename": null, "addr:housenumber": null, "addr:interpolation": null, "admin_level": null, "aerialway": null, "aeroway": null, "amenity": "parking", "area": null, "barrier": null, "bicycle": null, "brand": null, "bridge": null, "boundary": null, "building": null, "construction": null, "covered": null, "culvert": null, "cutting": null, "denomination": null, "disused": null, "embankment": null, "foot": null, "generator:source": null, "harbour": null, "highway": null, "historic": null, "horse": null, "intermittent": null, "junction": null, "landuse": null, "layer": null, "leisure": null, "lock": null, "man_made": null, "military": null, "motorcar": null, "name": null, "natural": null, "office": null, "oneway": null, "operator": null, "place": null, "population": null, "power": null, "power_source": null, "public_transport": null, "railway": null, "ref": null, "religion": null, "route": null, "service": null, "shop": null, "sport": null, "surface": null, "toll": null, "tourism": null, "tower:type": null, "tracktype": null, "tunnel": null, "water": null, "waterway": null, "wetland": null, "width": null, "wood": null, "z_order": 0, "way_area": 3402.050000, "tags": "\"parking\"=>\"surface\"" }, "geometry": { "type": "Polygon", "coordinates": [ [ [ 1.936457384631025, 47.844881912859492 ], [ 1.936639652802172, 47.845069111541783 ], [ 1.93711719720721, 47.844903496510135 ], [ 1.936907979577539, 47.844564969782141 ], [ 1.936537783848953, 47.84465136514816 ], [ 1.936693372056163, 47.844806309721882 ], [ 1.936457384631025, 47.844881912859492 ] ] ] } },
{ "type": "Feature", "properties": { "osm_id": "171342386", "access": null, "addr:housename": null, "addr:housenumber": null, "addr:interpolation": null, "admin_level": null, "aerialway": null, "aeroway": null, "amenity": "parking", "area": null, "barrier": null, "bicycle": null, "brand": null, "bridge": null, "boundary": null, "building": null, "construction": null, "covered": null, "culvert": null, "cutting": null, "denomination": null, "disused": null, "embankment": null, "foot": null, "generator:source": null, "harbour": null, "highway": null, "historic": null, "horse": null, "intermittent": null, "junction": null, "landuse": null, "layer": null, "leisure": null, "lock": null, "man_made": null, "military": null, "motorcar": null, "name": null, "natural": null, "office": null, "oneway": null, "operator": null, "place": null, "population": null, "power": null, "power_source": null, "public_transport": null, "railway": null, "ref": null, "religion": null, "route": null, "service": null, "shop": null, "sport": null, "surface": null, "toll": null, "tourism": null, "tower:type": null, "tracktype": null, "tunnel": null, "water": null, "waterway": null, "wetland": null, "width": null, "wood": null, "z_order": 0, "way_area": 9535.050000, "tags": "\"parking\"=>\"surface\"" }, "geometry": { "type": "Polygon", "coordinates": [ [ [ 1.93741418024014, 47.843873681092248 ], [ 1.937648281203182, 47.84416536673362 ], [ 1.937890107677667, 47.844408999556009 ], [ 1.938465029459503, 47.84471587520202 ], [ 1.938969523323065, 47.844521561030312 ], [ 1.938686464177038, 47.844125394201363 ], [ 1.938084233610565, 47.844329597447832 ], [ 1.938075160626195, 47.844313560257085 ], [ 1.937849503826825, 47.844028507407906 ], [ 1.9378310883635, 47.8440355613996 ], [ 1.937699934332018, 47.843867290276449 ], [ 1.937725446486087, 47.843858186377126 ], [ 1.937684213814546, 47.843805492252905 ], [ 1.937658611828949, 47.843812606565706 ], [ 1.937567253164554, 47.843691180787985 ], [ 1.937471223260681, 47.843715417733549 ], [ 1.93741418024014, 47.843873681092248 ] ] ] } },
{ "type": "Feature", "properties": { "osm_id": "220658881", "access": null, "addr:housename": null, "addr:housenumber": null, "addr:interpolation": null, "admin_level": null, "aerialway": null, "aeroway": null, "amenity": "parking", "area": null, "barrier": null, "bicycle": null, "brand": null, "bridge": null, "boundary": null, "building": null, "construction": null, "covered": null, "culvert": null, "cutting": null, "denomination": null, "disused": null, "embankment": null, "foot": null, "generator:source": null, "harbour": null, "highway": null, "historic": null, "horse": null, "intermittent": null, "junction": null, "landuse": null, "layer": null, "leisure": null, "lock": null, "man_made": null, "military": null, "motorcar": null, "name": null, "natural": null, "office": null, "oneway": null, "operator": null, "place": null, "population": null, "power": null, "power_source": null, "public_transport": null, "railway": null, "ref": null, "religion": null, "route": null, "service": null, "shop": null, "sport": null, "surface": null, "toll": null, "tourism": null, "tower:type": null, "tracktype": null, "tunnel": null, "water": null, "waterway": null, "wetland": null, "width": null, "wood": null, "z_order": 0, "way_area": 23035.600000, "tags": "" }, "geometry": { "type": "Polygon", "coordinates": [ [ [ 1.942273167611942, 47.839734196859915 ], [ 1.94319591707179, 47.841096978358706 ], [ 1.943421214545047, 47.841037166737159 ], [ 1.944079050827608, 47.842040509623097 ], [ 1.94437989661626, 47.842452971315275 ], [ 1.944579861598505, 47.842371576561931 ], [ 1.944531622067747, 47.84216700385133 ], [ 1.94286668452016, 47.839745170643837 ], [ 1.942273167611942, 47.839734196859915 ] ] ] } },
{ "type": "Feature", "properties": { "osm_id": "188334304", "access": null, "addr:housename": null, "addr:housenumber": null, "addr:interpolation": null, "admin_level": null, "aerialway": null, "aeroway": null, "amenity": "parking", "area": null, "barrier": null, "bicycle": null, "brand": null, "bridge": null, "boundary": null, "building": null, "construction": null, "covered": null, "culvert": null, "cutting": null, "denomination": null, "disused": null, "embankment": null, "foot": null, "generator:source": null, "harbour": null, "highway": null, "historic": null, "horse": null, "intermittent": null, "junction": null, "landuse": null, "layer": null, "leisure": null, "lock": null, "man_made": null, "military": null, "motorcar": null, "name": null, "natural": null, "office": null, "oneway": null, "operator": null, "place": null, "population": null, "power": null, "power_source": null, "public_transport": null, "railway": null, "ref": null, "religion": null, "route": null, "service": null, "shop": null, "sport": null, "surface": null, "toll": null, "tourism": null, "tower:type": null, "tracktype": null, "tunnel": null, "water": null, "waterway": null, "wetland": null, "width": null, "wood": null, "z_order": 0, "way_area": 535.157000, "tags": "" }, "geometry": { "type": "Polygon", "coordinates": [ [ [ 1.938815013094196, 47.844841579141892 ], [ 1.938847172781368, 47.844874014929211 ], [ 1.939566094503248, 47.844638161678645 ], [ 1.939539234876253, 47.84460940342521 ], [ 1.938815013094196, 47.844841579141892 ] ] ] } },
{ "type": "Feature", "properties": { "osm_id": "171342383", "access": null, "addr:housename": null, "addr:housenumber": null, "addr:interpolation": null, "admin_level": null, "aerialway": null, "aeroway": null, "amenity": "parking", "area": null, "barrier": null, "bicycle": null, "brand": null, "bridge": null, "boundary": null, "building": null, "construction": null, "covered": null, "culvert": null, "cutting": null, "denomination": null, "disused": null, "embankment": null, "foot": null, "generator:source": null, "harbour": null, "highway": null, "historic": null, "horse": null, "intermittent": null, "junction": null, "landuse": null, "layer": null, "leisure": null, "lock": null, "man_made": null, "military": null, "motorcar": null, "name": null, "natural": null, "office": null, "oneway": null, "operator": null, "place": null, "population": null, "power": null, "power_source": null, "public_transport": null, "railway": null, "ref": null, "religion": null, "route": null, "service": null, "shop": null, "sport": null, "surface": null, "toll": null, "tourism": null, "tower:type": null, "tracktype": null, "tunnel": null, "water": null, "waterway": null, "wetland": null, "width": null, "wood": null, "z_order": 0, "way_area": 1939.770000, "tags": "\"parking\"=>\"surface\"" }, "geometry": { "type": "Polygon", "coordinates": [ [ [ 1.938868013695959, 47.844936173416649 ], [ 1.939004916945259, 47.845105285122315 ], [ 1.939480395225143, 47.844935389653436 ], [ 1.939382119533061, 47.844761695378445 ], [ 1.938868013695959, 47.844936173416649 ] ] ] } },
{ "type": "Feature", "properties": { "osm_id": "361415456", "access": null, "addr:housename": null, "addr:housenumber": null, "addr:interpolation": null, "admin_level": null, "aerialway": null, "aeroway": null, "amenity": "parking", "area": null, "barrier": null, "bicycle": null, "brand": null, "bridge": null, "boundary": null, "building": null, "construction": null, "covered": null, "culvert": null, "cutting": null, "denomination": null, "disused": null, "embankment": null, "foot": null, "generator:source": null, "harbour": null, "highway": null, "historic": null, "horse": null, "intermittent": null, "junction": null, "landuse": null, "layer": null, "leisure": null, "lock": null, "man_made": null, "military": null, "motorcar": null, "name": null, "natural": null, "office": null, "oneway": null, "operator": null, "place": null, "population": null, "power": null, "power_source": null, "public_transport": null, "railway": null, "ref": null, "religion": null, "route": null, "service": null, "shop": null, "sport": null, "surface": null, "toll": null, "tourism": null, "tower:type": null, "tracktype": null, "tunnel": null, "water": null, "waterway": null, "wetland": null, "width": null, "wood": null, "z_order": 0, "way_area": 874.608000, "tags": "" }, "geometry": { "type": "Polygon", "coordinates": [ [ [ 1.940211084877246, 47.845056209625291 ], [ 1.94048066929401, 47.845420958831063 ], [ 1.940547863277263, 47.845319492491342 ], [ 1.940325260749858, 47.845018167039761 ], [ 1.940211084877246, 47.845056209625291 ] ] ] } },
{ "type": "Feature", "properties": { "osm_id": "361415458", "access": null, "addr:housename": null, "addr:housenumber": null, "addr:interpolation": null, "admin_level": null, "aerialway": null, "aeroway": null, "amenity": "parking", "area": null, "barrier": null, "bicycle": null, "brand": null, "bridge": null, "boundary": null, "building": null, "construction": null, "covered": null, "culvert": null, "cutting": null, "denomination": null, "disused": null, "embankment": null, "foot": null, "generator:source": null, "harbour": null, "highway": null, "historic": null, "horse": null, "intermittent": null, "junction": null, "landuse": null, "layer": null, "leisure": null, "lock": null, "man_made": null, "military": null, "motorcar": null, "name": null, "natural": null, "office": null, "oneway": null, "operator": null, "place": null, "population": null, "power": null, "power_source": null, "public_transport": null, "railway": null, "ref": null, "religion": null, "route": null, "service": null, "shop": null, "sport": null, "surface": null, "toll": null, "tourism": null, "tower:type": null, "tracktype": null, "tunnel": null, "water": null, "waterway": null, "wetland": null, "width": null, "wood": null, "z_order": 0, "way_area": 1907.130000, "tags": "" }, "geometry": { "type": "Polygon", "coordinates": [ [ [ 1.940197071158814, 47.844755606120493 ], [ 1.940312594504352, 47.844910309224822 ], [ 1.94084610395159, 47.844731007922661 ], [ 1.940730580606053, 47.844576183703794 ], [ 1.940197071158814, 47.844755606120493 ] ] ] } },
{ "type": "Feature", "properties": { "osm_id": "361415455", "access": null, "addr:housename": null, "addr:housenumber": null, "addr:interpolation": null, "admin_level": null, "aerialway": null, "aeroway": null, "amenity": "parking", "area": null, "barrier": null, "bicycle": null, "brand": null, "bridge": null, "boundary": null, "building": null, "construction": null, "covered": null, "culvert": null, "cutting": null, "denomination": null, "disused": null, "embankment": null, "foot": null, "generator:source": null, "harbour": null, "highway": null, "historic": null, "horse": null, "intermittent": null, "junction": null, "landuse": null, "layer": null, "leisure": null, "lock": null, "man_made": null, "military": null, "motorcar": null, "name": null, "natural": null, "office": null, "oneway": null, "operator": null, "place": null, "population": null, "power": null, "power_source": null, "public_transport": null, "railway": null, "ref": null, "religion": null, "route": null, "service": null, "shop": null, "sport": null, "surface": null, "toll": null, "tourism": null, "tower:type": null, "tracktype": null, "tunnel": null, "water": null, "waterway": null, "wetland": null, "width": null, "wood": null, "z_order": 0, "way_area": 1293.250000, "tags": "" }, "geometry": { "type": "Polygon", "coordinates": [ [ [ 1.941267323988314, 47.844588362261113 ], [ 1.941448424349592, 47.844837780897819 ], [ 1.9416776744101, 47.844764287834593 ], [ 1.941506096190833, 47.844534885109397 ], [ 1.941497472364105, 47.844513180725436 ], [ 1.941267323988314, 47.844588362261113 ] ] ] } },
{ "type": "Feature", "properties": { "osm_id": "361415457", "access": null, "addr:housename": null, "addr:housenumber": null, "addr:interpolation": null, "admin_level": null, "aerialway": null, "aeroway": null, "amenity": "parking", "area": null, "barrier": null, "bicycle": null, "brand": null, "bridge": null, "boundary": null, "building": null, "construction": null, "covered": null, "culvert": null, "cutting": null, "denomination": null, "disused": null, "embankment": null, "foot": null, "generator:source": null, "harbour": null, "highway": null, "historic": null, "horse": null, "intermittent": null, "junction": null, "landuse": null, "layer": null, "leisure": null, "lock": null, "man_made": null, "military": null, "motorcar": null, "name": null, "natural": null, "office": null, "oneway": null, "operator": null, "place": null, "population": null, "power": null, "power_source": null, "public_transport": null, "railway": null, "ref": null, "religion": null, "route": null, "service": null, "shop": null, "sport": null, "surface": null, "toll": null, "tourism": null, "tower:type": null, "tracktype": null, "tunnel": null, "water": null, "waterway": null, "wetland": null, "width": null, "wood": null, "z_order": 0, "way_area": 1371.750000, "tags": "" }, "geometry": { "type": "Polygon", "coordinates": [ [ [ 1.940679376634858, 47.845389186564212 ], [ 1.940751870678286, 47.845487095726405 ], [ 1.940833617369141, 47.845487095726405 ], [ 1.941271186744036, 47.845341015670897 ], [ 1.941182433193965, 47.845221160988764 ], [ 1.940679376634858, 47.845389186564212 ] ] ] } },
{ "type": "Feature", "properties": { "osm_id": "361415454", "access": null, "addr:housename": null, "addr:housenumber": null, "addr:interpolation": null, "admin_level": null, "aerialway": null, "aeroway": null, "amenity": "parking", "area": null, "barrier": null, "bicycle": null, "brand": null, "bridge": null, "boundary": null, "building": null, "construction": null, "covered": null, "culvert": null, "cutting": null, "denomination": null, "disused": null, "embankment": null, "foot": null, "generator:source": null, "harbour": null, "highway": null, "historic": null, "horse": null, "intermittent": null, "junction": null, "landuse": null, "layer": null, "leisure": null, "lock": null, "man_made": null, "military": null, "motorcar": null, "name": null, "natural": null, "office": null, "oneway": null, "operator": null, "place": null, "population": null, "power": null, "power_source": null, "public_transport": null, "railway": null, "ref": null, "religion": null, "route": null, "service": null, "shop": null, "sport": null, "surface": null, "toll": null, "tourism": null, "tower:type": null, "tracktype": null, "tunnel": null, "water": null, "waterway": null, "wetland": null, "width": null, "wood": null, "z_order": 0, "way_area": 1005.820000, "tags": "" }, "geometry": { "type": "Polygon", "coordinates": [ [ [ 1.94120363343467, 47.844980908188852 ], [ 1.941320504253134, 47.845124215952737 ], [ 1.941643628260831, 47.845013464467819 ], [ 1.941550832291982, 47.844891318026789 ], [ 1.941368204794721, 47.844953777940773 ], [ 1.941350507983624, 47.84493056649503 ], [ 1.94120363343467, 47.844980908188852 ] ] ] } },
{ "type": "Feature", "properties": { "osm_id": "376245337", "access": null, "addr:housename": null, "addr:housenumber": null, "addr:interpolation": null, "admin_level": null, "aerialway": null, "aeroway": null, "amenity": "parking", "area": null, "barrier": null, "bicycle": null, "brand": null, "bridge": null, "boundary": null, "building": null, "construction": null, "covered": null, "culvert": null, "cutting": null, "denomination": null, "disused": null, "embankment": null, "foot": null, "generator:source": null, "harbour": null, "highway": null, "historic": null, "horse": null, "intermittent": null, "junction": null, "landuse": null, "layer": null, "leisure": null, "lock": null, "man_made": null, "military": null, "motorcar": null, "name": null, "natural": null, "office": null, "oneway": null, "operator": null, "place": null, "population": null, "power": null, "power_source": null, "public_transport": null, "railway": null, "ref": null, "religion": null, "route": null, "service": null, "shop": null, "sport": null, "surface": null, "toll": null, "tourism": null, "tower:type": null, "tracktype": null, "tunnel": null, "water": null, "waterway": null, "wetland": null, "width": null, "wood": null, "z_order": 0, "way_area": 1763.380000, "tags": "" }, "geometry": { "type": "Polygon", "coordinates": [ [ [ 1.933302231858611, 47.848030679640424 ], [ 1.933350112063255, 47.848096270635935 ], [ 1.934463933184035, 47.847730515377414 ], [ 1.934407249489607, 47.847658714429599 ], [ 1.933302231858611, 47.848030679640424 ] ] ] } },
{ "type": "Feature", "properties": { "osm_id": "376245338", "access": null, "addr:housename": null, "addr:housenumber": null, "addr:interpolation": null, "admin_level": null, "aerialway": null, "aeroway": null, "amenity": "parking", "area": null, "barrier": null, "bicycle": null, "brand": null, "bridge": null, "boundary": null, "building": null, "construction": null, "covered": null, "culvert": null, "cutting": null, "denomination": null, "disused": null, "embankment": null, "foot": null, "generator:source": null, "harbour": null, "highway": null, "historic": null, "horse": null, "intermittent": null, "junction": null, "landuse": null, "layer": null, "leisure": null, "lock": null, "man_made": null, "military": null, "motorcar": null, "name": null, "natural": null, "office": null, "oneway": null, "operator": null, "place": null, "population": null, "power": null, "power_source": null, "public_transport": null, "railway": null, "ref": null, "religion": null, "route": null, "service": null, "shop": null, "sport": null, "surface": null, "toll": null, "tourism": null, "tower:type": null, "tracktype": null, "tunnel": null, "water": null, "waterway": null, "wetland": null, "width": null, "wood": null, "z_order": 0, "way_area": 2821.860000, "tags": "" }, "geometry": { "type": "Polygon", "coordinates": [ [ [ 1.934522233845974, 47.847612595380468 ], [ 1.934576581920663, 47.847693861337547 ], [ 1.936218163270863, 47.8471401892687 ], [ 1.936165072837572, 47.847071160705504 ], [ 1.934522233845974, 47.847612595380468 ] ] ] } },
{ "type": "Feature", "properties": { "osm_id": "374824144", "access": null, "addr:housename": null, "addr:housenumber": null, "addr:interpolation": null, "admin_level": null, "aerialway": null, "aeroway": null, "amenity": "parking", "area": null, "barrier": null, "bicycle": null, "brand": null, "bridge": null, "boundary": null, "building": null, "construction": null, "covered": null, "culvert": null, "cutting": null, "denomination": null, "disused": null, "embankment": null, "foot": null, "generator:source": null, "harbour": null, "highway": null, "historic": null, "horse": null, "intermittent": null, "junction": null, "landuse": null, "layer": null, "leisure": null, "lock": null, "man_made": null, "military": null, "motorcar": null, "name": null, "natural": null, "office": null, "oneway": null, "operator": null, "place": null, "population": null, "power": null, "power_source": null, "public_transport": null, "railway": null, "ref": null, "religion": null, "route": null, "service": null, "shop": null, "sport": null, "surface": null, "toll": null, "tourism": null, "tower:type": null, "tracktype": null, "tunnel": null, "water": null, "waterway": null, "wetland": null, "width": null, "wood": null, "z_order": 0, "way_area": 2326.230000, "tags": "" }, "geometry": { "type": "Polygon", "coordinates": [ [ [ 1.93706572374143, 47.84676068175262 ], [ 1.937127887159091, 47.846836764339791 ], [ 1.938617832889332, 47.846334568971798 ], [ 1.938573995103467, 47.846277416057525 ], [ 1.93706572374143, 47.84676068175262 ] ] ] } },
{ "type": "Feature", "properties": { "osm_id": "106230559", "access": null, "addr:housename": null, "addr:housenumber": null, "addr:interpolation": null, "admin_level": null, "aerialway": null, "aeroway": null, "amenity": "parking", "area": null, "barrier": null, "bicycle": null, "brand": null, "bridge": null, "boundary": null, "building": null, "construction": null, "covered": null, "culvert": null, "cutting": null, "denomination": null, "disused": null, "embankment": null, "foot": null, "generator:source": null, "harbour": null, "highway": null, "historic": null, "horse": null, "intermittent": null, "junction": null, "landuse": null, "layer": null, "leisure": null, "lock": null, "man_made": null, "military": null, "motorcar": null, "name": null, "natural": null, "office": null, "oneway": null, "operator": null, "place": null, "population": null, "power": null, "power_source": null, "public_transport": null, "railway": null, "ref": null, "religion": null, "route": null, "service": null, "shop": null, "sport": null, "surface": null, "toll": null, "tourism": null, "tower:type": null, "tracktype": null, "tunnel": null, "water": null, "waterway": null, "wetland": null, "width": null, "wood": null, "z_order": 0, "way_area": 5948.970000, "tags": "\"parking\"=>\"surface\"" }, "geometry": { "type": "Polygon", "coordinates": [ [ [ 1.937188703103826, 47.84689741329526 ], [ 1.937558898832412, 47.84708448412966 ], [ 1.938435654549713, 47.846818497294571 ], [ 1.93839109811162, 47.84651507048374 ], [ 1.937188703103826, 47.84689741329526 ] ] ] } },
{ "type": "Feature", "properties": { "osm_id": "376245333", "access": null, "addr:housename": null, "addr:housenumber": null, "addr:interpolation": null, "admin_level": null, "aerialway": null, "aeroway": null, "amenity": "parking", "area": null, "barrier": null, "bicycle": null, "brand": null, "bridge": null, "boundary": null, "building": null, "construction": null, "covered": null, "culvert": null, "cutting": null, "denomination": null, "disused": null, "embankment": null, "foot": null, "generator:source": null, "harbour": null, "highway": null, "historic": null, "horse": null, "intermittent": null, "junction": null, "landuse": null, "layer": null, "leisure": null, "lock": null, "man_made": null, "military": null, "motorcar": null, "name": null, "natural": null, "office": null, "oneway": null, "operator": null, "place": null, "population": null, "power": null, "power_source": null, "public_transport": null, "railway": null, "ref": null, "religion": null, "route": null, "service": null, "shop": null, "sport": null, "surface": null, "toll": null, "tourism": null, "tower:type": null, "tracktype": null, "tunnel": null, "water": null, "waterway": null, "wetland": null, "width": null, "wood": null, "z_order": 0, "way_area": 1036.900000, "tags": "" }, "geometry": { "type": "Polygon", "coordinates": [ [ [ 1.938688260807607, 47.846388164843681 ], [ 1.938772522781257, 47.846442906126974 ], [ 1.939419669111937, 47.846225809574484 ], [ 1.939401253648612, 47.846149786379208 ], [ 1.938688260807607, 47.846388164843681 ] ] ] } },
{ "type": "Feature", "properties": { "osm_id": "181303201", "access": null, "addr:housename": null, "addr:housenumber": null, "addr:interpolation": null, "admin_level": null, "aerialway": null, "aeroway": null, "amenity": "parking", "area": null, "barrier": null, "bicycle": null, "brand": null, "bridge": null, "boundary": null, "building": null, "construction": null, "covered": null, "culvert": null, "cutting": null, "denomination": null, "disused": null, "embankment": null, "foot": null, "generator:source": null, "harbour": null, "highway": null, "historic": null, "horse": null, "intermittent": null, "junction": null, "landuse": null, "layer": null, "leisure": null, "lock": null, "man_made": null, "military": null, "motorcar": null, "name": null, "natural": null, "office": null, "oneway": null, "operator": null, "place": null, "population": null, "power": null, "power_source": null, "public_transport": null, "railway": null, "ref": null, "religion": null, "route": null, "service": null, "shop": null, "sport": null, "surface": null, "toll": null, "tourism": null, "tower:type": null, "tracktype": null, "tunnel": null, "water": null, "waterway": null, "wetland": null, "width": null, "wood": null, "z_order": 0, "way_area": 6271.120000, "tags": "\"parking\"=>\"surface\"" }, "geometry": { "type": "Polygon", "coordinates": [ [ [ 1.935832157193277, 47.847367169005672 ], [ 1.936160491429623, 47.847569611184021 ], [ 1.937049194740202, 47.847283008772848 ], [ 1.93700122470403, 47.84695335978374 ], [ 1.935832157193277, 47.847367169005672 ] ] ] } },
{ "type": "Feature", "properties": { "osm_id": "106230521", "access": null, "addr:housename": null, "addr:housenumber": null, "addr:interpolation": null, "admin_level": null, "aerialway": null, "aeroway": null, "amenity": "parking", "area": null, "barrier": null, "bicycle": null, "brand": null, "bridge": null, "boundary": null, "building": null, "construction": null, "covered": null, "culvert": null, "cutting": null, "denomination": null, "disused": null, "embankment": null, "foot": null, "generator:source": null, "harbour": null, "highway": null, "historic": null, "horse": null, "intermittent": null, "junction": null, "landuse": null, "layer": null, "leisure": null, "lock": null, "man_made": null, "military": null, "motorcar": null, "name": null, "natural": null, "office": null, "oneway": null, "operator": null, "place": null, "population": null, "power": null, "power_source": null, "public_transport": null, "railway": null, "ref": null, "religion": null, "route": null, "service": null, "shop": null, "sport": null, "surface": null, "toll": null, "tourism": null, "tower:type": null, "tracktype": null, "tunnel": null, "water": null, "waterway": null, "wetland": null, "width": null, "wood": null, "z_order": 0, "way_area": 8065.440000, "tags": "" }, "geometry": { "type": "Polygon", "coordinates": [ [ [ 1.937974908640487, 47.847236286521621 ], [ 1.938278718869577, 47.847365058972855 ], [ 1.940055047512395, 47.846752964970506 ], [ 1.940164731808586, 47.846506871363886 ], [ 1.937974908640487, 47.847236286521621 ] ] ] } },
{ "type": "Feature", "properties": { "osm_id": "321381938", "access": "private", "addr:housename": null, "addr:housenumber": null, "addr:interpolation": null, "admin_level": null, "aerialway": null, "aeroway": null, "amenity": "parking", "area": null, "barrier": null, "bicycle": null, "brand": null, "bridge": null, "boundary": null, "building": null, "construction": null, "covered": null, "culvert": null, "cutting": null, "denomination": null, "disused": null, "embankment": null, "foot": null, "generator:source": null, "harbour": null, "highway": null, "historic": null, "horse": null, "intermittent": null, "junction": null, "landuse": null, "layer": null, "leisure": null, "lock": null, "man_made": null, "military": null, "motorcar": null, "name": null, "natural": null, "office": null, "oneway": null, "operator": null, "place": null, "population": null, "power": null, "power_source": null, "public_transport": null, "railway": null, "ref": null, "religion": null, "route": null, "service": null, "shop": null, "sport": null, "surface": null, "toll": null, "tourism": null, "tower:type": null, "tracktype": null, "tunnel": null, "water": null, "waterway": null, "wetland": null, "width": null, "wood": null, "z_order": 0, "way_area": 1497.690000, "tags": "\"fee\"=>\"no\", \"parking\"=>\"surface\", \"capacity\"=>\"25\", \"supervised\"=>\"no\"" }, "geometry": { "type": "Polygon", "coordinates": [ [ [ 1.940012916525569, 47.845962169579067 ], [ 1.940163114841075, 47.846178182050444 ], [ 1.940463511472084, 47.846091789227472 ], [ 1.940313313156579, 47.845861367470455 ], [ 1.940012916525569, 47.845962169579067 ] ] ] } },
{ "type": "Feature", "properties": { "osm_id": "116359580", "access": null, "addr:housename": null, "addr:housenumber": null, "addr:interpolation": null, "admin_level": null, "aerialway": null, "aeroway": null, "amenity": "parking", "area": null, "barrier": null, "bicycle": null, "brand": null, "bridge": null, "boundary": null, "building": null, "construction": null, "covered": null, "culvert": null, "cutting": null, "denomination": null, "disused": null, "embankment": null, "foot": null, "generator:source": null, "harbour": null, "highway": null, "historic": null, "horse": null, "intermittent": null, "junction": null, "landuse": null, "layer": null, "leisure": null, "lock": null, "man_made": null, "military": null, "motorcar": null, "name": null, "natural": null, "office": null, "oneway": null, "operator": null, "place": null, "population": null, "power": null, "power_source": null, "public_transport": null, "railway": null, "ref": null, "religion": null, "route": null, "service": null, "shop": null, "sport": null, "surface": null, "toll": null, "tourism": null, "tower:type": null, "tracktype": null, "tunnel": null, "water": null, "waterway": null, "wetland": null, "width": null, "wood": null, "z_order": 0, "way_area": 149.496000, "tags": "" }, "geometry": { "type": "Polygon", "coordinates": [ [ [ 1.939521358402099, 47.846699007751013 ], [ 1.939781600339909, 47.846610807169675 ], [ 1.939722581025742, 47.846596398448007 ], [ 1.93953204835398, 47.846657590271825 ], [ 1.939521358402099, 47.846699007751013 ] ] ] } }
]
}