SELECT ST_AsText(ST_Transform(geom, 900913)) FROM univ_boundaries;

SELECT ST_GeomFromText('MULTIPOLYGON(((1.92952906574768 47.8505381358576,1.94555629949881 47.8461747906712,1.93646283354072 47.8384388674808,1.92204968999716 47.843352151582,1.92950633208279 47.8505228800454,1.94553356583391 47.8461595335755,1.93637189888114 47.8384236081098,1.92207242366205 47.843336893656,1.92952906574768 47.8505381358576)))');

MULTIPOLYGON(((214794.193069853 6082025.62767059,216578.336569853 6081301.84747059,215566.056569853 6080018.78257059,213961.592769853 6080833.66797059,214791.662369853 6082023.09697059,216575.805869853 6081299.31677059,215555.933769853 6080016.25187059,213964.123469853 6080831.13727059,214794.193069853 6082025.62767059)))
